06-Apr-2021 19:03:48.159 INFORMACIÓN [main] org.apache.catalina.startup.VersionLoggerListener.log Nombre de la versión del servidor: Apache Tomcat/9.0.44
06-Apr-2021 19:03:48.162 INFORMACIÓN [main] org.apache.catalina.startup.VersionLoggerListener.log Server built:                      Mar 4 2021 21:49:34 UTC
06-Apr-2021 19:03:48.163 INFORMACIÓN [main] org.apache.catalina.startup.VersionLoggerListener.log Número de versión de servidor:     9.0.44.0
06-Apr-2021 19:03:48.163 INFORMACIÓN [main] org.apache.catalina.startup.VersionLoggerListener.log OS Name:                           Windows 8.1
06-Apr-2021 19:03:48.163 INFORMACIÓN [main] org.apache.catalina.startup.VersionLoggerListener.log Versión de Systema Operativo:      6.3
06-Apr-2021 19:03:48.163 INFORMACIÓN [main] org.apache.catalina.startup.VersionLoggerListener.log Arquitectura:                      amd64
06-Apr-2021 19:03:48.163 INFORMACIÓN [main] org.apache.catalina.startup.VersionLoggerListener.log Java Home:                         C:\Program Files\Java\jdk1.8.0_152\jre
06-Apr-2021 19:03:48.163 INFORMACIÓN [main] org.apache.catalina.startup.VersionLoggerListener.log JVM Version:                       1.8.0_152-b16
06-Apr-2021 19:03:48.163 INFORMACIÓN [main] org.apache.catalina.startup.VersionLoggerListener.log Vededor JVM:                       Oracle Corporation
06-Apr-2021 19:03:48.164 INFORMACIÓN [main] org.apache.catalina.startup.VersionLoggerListener.log CATALINA_BASE:                     C:\apache-tomcat-9.0.44
06-Apr-2021 19:03:48.164 INFORMACIÓN [main] org.apache.catalina.startup.VersionLoggerListener.log CATALINA_HOME:                     C:\apache-tomcat-9.0.44
06-Apr-2021 19:03:48.165 INFORMACIÓN [main] org.apache.catalina.startup.VersionLoggerListener.log Command line argument:             -Dcatalina.home=C:\apache-tomcat-9.0.44
06-Apr-2021 19:03:48.165 INFORMACIÓN [main] org.apache.catalina.startup.VersionLoggerListener.log Command line argument:             -Dcatalina.base=C:\apache-tomcat-9.0.44
06-Apr-2021 19:03:48.165 INFORMACIÓN [main] org.apache.catalina.startup.VersionLoggerListener.log Command line argument:             -Dignore.endorsed.dirs=C:\apache-tomcat-9.0.44\endorsed
06-Apr-2021 19:03:48.165 INFORMACIÓN [main] org.apache.catalina.startup.VersionLoggerListener.log Command line argument:             -Djava.io.tmpdir=C:\apache-tomcat-9.0.44\temp
06-Apr-2021 19:03:48.165 INFORMACIÓN [main] org.apache.catalina.startup.VersionLoggerListener.log Command line argument:             -Djava.util.logging.manager=org.apache.juli.ClassLoaderLogManager
06-Apr-2021 19:03:48.165 INFORMACIÓN [main] org.apache.catalina.startup.VersionLoggerListener.log Command line argument:             -Djava.util.logging.config.file=C:\apache-tomcat-9.0.44\conf\logging.properties
06-Apr-2021 19:03:48.166 INFORMACIÓN [main] org.apache.catalina.startup.VersionLoggerListener.log Command line argument:             exit
06-Apr-2021 19:03:48.166 INFORMACIÓN [main] org.apache.catalina.startup.VersionLoggerListener.log Command line argument:             abort
06-Apr-2021 19:03:48.166 INFORMACIÓN [main] org.apache.catalina.startup.VersionLoggerListener.log Command line argument:             -Xms128m
06-Apr-2021 19:03:48.166 INFORMACIÓN [main] org.apache.catalina.startup.VersionLoggerListener.log Command line argument:             -Xmx256m
06-Apr-2021 19:03:48.169 INFORMACIÓN [main] org.apache.catalina.core.AprLifecycleListener.lifecycleEvent Cargada la biblioteca nativa APR de Apache Tomcat [1.2.26] con la versión APR [1.7.0].
06-Apr-2021 19:03:48.170 INFORMACIÓN [main] org.apache.catalina.core.AprLifecycleListener.lifecycleEvent Capacidades APR: IPv6 [true], enviar fichero [true], aceptar filtros [false], aleatorio [true].
06-Apr-2021 19:03:48.170 INFORMACIÓN [main] org.apache.catalina.core.AprLifecycleListener.lifecycleEvent APR/OpenSSL configuration: useAprConnector [false], useOpenSSL [true]
06-Apr-2021 19:03:48.175 INFORMACIÓN [main] org.apache.catalina.core.AprLifecycleListener.initializeSSL OpenSSL inicializado correctamente [OpenSSL 1.1.1i  8 Dec 2020]
06-Apr-2021 19:03:48.598 INFORMACIÓN [main] org.apache.coyote.AbstractProtocol.init Inicializando el manejador de protocolo ["http-nio-8080"]

06-Apr-2021 19:03:48.801 INFORMACIÓN [main] org.apache.catalina.startup.Catalina.load Server initialization in [930] milliseconds
06-Apr-2021 19:03:48.872 INFORMACIÓN [main] org.apache.catalina.core.StandardService.startInternal Arrancando servicio [Catalina]
06-Apr-2021 19:03:48.873 INFORMACIÓN [main] org.apache.catalina.core.StandardEngine.startInternal Starting Servlet engine: [Apache Tomcat/9.0.44]
06-Apr-2021 19:03:48.895 INFORMACIÓN [main] org.apache.catalina.startup.HostConfig.deployWAR Despliegue del archivo [C:\apache-tomcat-9.0.44\webapps\CRUD_carlos_fernandez.war] de la aplicación web
06-Apr-2021 19:03:53.987 INFORMACIÓN [main] org.apache.jasper.servlet.TldScanner.scanJars Al menos un JAR, que se ha explorado buscando TLDs, aún no contenía TLDs. Activar historial de depuración para este historiador para una completa lista de los JARs que fueron explorados y de los que nos se halló TLDs. Saltarse JARs no necesarios durante la exploración puede dar lugar a una mejora de tiempo significativa en el arranque y compilación de JSP .
06-Apr-2021 19:03:54.063 INFORMACIÓN [main] org.apache.catalina.startup.HostConfig.deployWAR Deployment of web application archive [C:\apache-tomcat-9.0.44\webapps\CRUD_carlos_fernandez.war] has finished in [5.167] ms
06-Apr-2021 19:03:54.063 INFORMACIÓN [main] org.apache.catalina.startup.HostConfig.deployDirectory Desplegando el directorio [C:\apache-tomcat-9.0.44\webapps\docs] de la aplicación web
06-Apr-2021 19:03:54.142 INFORMACIÓN [main] org.apache.catalina.startup.HostConfig.deployDirectory Deployment of web application directory [C:\apache-tomcat-9.0.44\webapps\docs] has finished in [79] ms
06-Apr-2021 19:03:54.143 INFORMACIÓN [main] org.apache.catalina.startup.HostConfig.deployDirectory Desplegando el directorio [C:\apache-tomcat-9.0.44\webapps\examples] de la aplicación web
06-Apr-2021 19:03:54.618 INFORMACIÓN [main] org.apache.catalina.startup.HostConfig.deployDirectory Deployment of web application directory [C:\apache-tomcat-9.0.44\webapps\examples] has finished in [476] ms
06-Apr-2021 19:03:54.618 INFORMACIÓN [main] org.apache.catalina.startup.HostConfig.deployDirectory Desplegando el directorio [C:\apache-tomcat-9.0.44\webapps\host-manager] de la aplicación web
06-Apr-2021 19:03:54.665 INFORMACIÓN [main] org.apache.catalina.startup.HostConfig.deployDirectory Deployment of web application directory [C:\apache-tomcat-9.0.44\webapps\host-manager] has finished in [47] ms
06-Apr-2021 19:03:54.666 INFORMACIÓN [main] org.apache.catalina.startup.HostConfig.deployDirectory Desplegando el directorio [C:\apache-tomcat-9.0.44\webapps\manager] de la aplicación web
06-Apr-2021 19:03:54.756 INFORMACIÓN [main] org.apache.catalina.startup.HostConfig.deployDirectory Deployment of web application directory [C:\apache-tomcat-9.0.44\webapps\manager] has finished in [91] ms
06-Apr-2021 19:03:54.756 INFORMACIÓN [main] org.apache.catalina.startup.HostConfig.deployDirectory Desplegando el directorio [C:\apache-tomcat-9.0.44\webapps\ROOT] de la aplicación web
06-Apr-2021 19:03:54.774 INFORMACIÓN [main] org.apache.catalina.startup.HostConfig.deployDirectory Deployment of web application directory [C:\apache-tomcat-9.0.44\webapps\ROOT] has finished in [18] ms
06-Apr-2021 19:03:54.779 INFORMACIÓN [main] org.apache.coyote.AbstractProtocol.start Starting ProtocolHandler ["http-nio-8080"]
06-Apr-2021 19:03:54.788 INFORMACIÓN [main] org.apache.catalina.startup.Catalina.start Server startup in [5987] milliseconds
06-Apr-2021 19:05:43.129 INFORMACIÓN [Thread-5] org.apache.coyote.AbstractProtocol.pause Pausing ProtocolHandler ["http-nio-8080"]
06-Apr-2021 19:05:43.197 INFORMACIÓN [Thread-5] org.apache.catalina.core.StandardService.stopInternal Parando servicio [Catalina]
06-Apr-2021 19:05:43.323 INFORMACIÓN [Thread-5] org.apache.coyote.AbstractProtocol.stop Stopping ProtocolHandler ["http-nio-8080"]
06-Apr-2021 19:05:43.343 INFORMACIÓN [Thread-5] org.apache.coyote.AbstractProtocol.destroy Destroying ProtocolHandler ["http-nio-8080"]
06-Apr-2021 19:06:02.154 INFORMACIÓN [main] org.apache.catalina.startup.VersionLoggerListener.log Nombre de la versión del servidor: Apache Tomcat/9.0.44
06-Apr-2021 19:06:02.157 INFORMACIÓN [main] org.apache.catalina.startup.VersionLoggerListener.log Server built:                      Mar 4 2021 21:49:34 UTC
06-Apr-2021 19:06:02.157 INFORMACIÓN [main] org.apache.catalina.startup.VersionLoggerListener.log Número de versión de servidor:     9.0.44.0
06-Apr-2021 19:06:02.157 INFORMACIÓN [main] org.apache.catalina.startup.VersionLoggerListener.log OS Name:                           Windows 8.1
06-Apr-2021 19:06:02.157 INFORMACIÓN [main] org.apache.catalina.startup.VersionLoggerListener.log Versión de Systema Operativo:      6.3
06-Apr-2021 19:06:02.157 INFORMACIÓN [main] org.apache.catalina.startup.VersionLoggerListener.log Arquitectura:                      amd64
06-Apr-2021 19:06:02.158 INFORMACIÓN [main] org.apache.catalina.startup.VersionLoggerListener.log Java Home:                         C:\Program Files\Java\jdk1.8.0_152\jre
06-Apr-2021 19:06:02.158 INFORMACIÓN [main] org.apache.catalina.startup.VersionLoggerListener.log JVM Version:                       1.8.0_152-b16
06-Apr-2021 19:06:02.158 INFORMACIÓN [main] org.apache.catalina.startup.VersionLoggerListener.log Vededor JVM:                       Oracle Corporation
06-Apr-2021 19:06:02.158 INFORMACIÓN [main] org.apache.catalina.startup.VersionLoggerListener.log CATALINA_BASE:                     C:\apache-tomcat-9.0.44
06-Apr-2021 19:06:02.158 INFORMACIÓN [main] org.apache.catalina.startup.VersionLoggerListener.log CATALINA_HOME:                     C:\apache-tomcat-9.0.44
06-Apr-2021 19:06:02.159 INFORMACIÓN [main] org.apache.catalina.startup.VersionLoggerListener.log Command line argument:             -Dcatalina.home=C:\apache-tomcat-9.0.44
06-Apr-2021 19:06:02.159 INFORMACIÓN [main] org.apache.catalina.startup.VersionLoggerListener.log Command line argument:             -Dcatalina.base=C:\apache-tomcat-9.0.44
06-Apr-2021 19:06:02.160 INFORMACIÓN [main] org.apache.catalina.startup.VersionLoggerListener.log Command line argument:             -Dignore.endorsed.dirs=C:\apache-tomcat-9.0.44\endorsed
06-Apr-2021 19:06:02.160 INFORMACIÓN [main] org.apache.catalina.startup.VersionLoggerListener.log Command line argument:             -Djava.io.tmpdir=C:\apache-tomcat-9.0.44\temp
06-Apr-2021 19:06:02.160 INFORMACIÓN [main] org.apache.catalina.startup.VersionLoggerListener.log Command line argument:             -Djava.util.logging.manager=org.apache.juli.ClassLoaderLogManager
06-Apr-2021 19:06:02.160 INFORMACIÓN [main] org.apache.catalina.startup.VersionLoggerListener.log Command line argument:             -Djava.util.logging.config.file=C:\apache-tomcat-9.0.44\conf\logging.properties
06-Apr-2021 19:06:02.162 INFORMACIÓN [main] org.apache.catalina.startup.VersionLoggerListener.log Command line argument:             exit
06-Apr-2021 19:06:02.162 INFORMACIÓN [main] org.apache.catalina.startup.VersionLoggerListener.log Command line argument:             abort
06-Apr-2021 19:06:02.162 INFORMACIÓN [main] org.apache.catalina.startup.VersionLoggerListener.log Command line argument:             -Xms128m
06-Apr-2021 19:06:02.162 INFORMACIÓN [main] org.apache.catalina.startup.VersionLoggerListener.log Command line argument:             -Xmx256m
06-Apr-2021 19:06:02.166 INFORMACIÓN [main] org.apache.catalina.core.AprLifecycleListener.lifecycleEvent Cargada la biblioteca nativa APR de Apache Tomcat [1.2.26] con la versión APR [1.7.0].
06-Apr-2021 19:06:02.166 INFORMACIÓN [main] org.apache.catalina.core.AprLifecycleListener.lifecycleEvent Capacidades APR: IPv6 [true], enviar fichero [true], aceptar filtros [false], aleatorio [true].
06-Apr-2021 19:06:02.166 INFORMACIÓN [main] org.apache.catalina.core.AprLifecycleListener.lifecycleEvent APR/OpenSSL configuration: useAprConnector [false], useOpenSSL [true]
06-Apr-2021 19:06:02.172 INFORMACIÓN [main] org.apache.catalina.core.AprLifecycleListener.initializeSSL OpenSSL inicializado correctamente [OpenSSL 1.1.1i  8 Dec 2020]
06-Apr-2021 19:06:02.607 INFORMACIÓN [main] org.apache.coyote.AbstractProtocol.init Inicializando el manejador de protocolo ["http-nio-8080"]

06-Apr-2021 19:06:02.769 INFORMACIÓN [main] org.apache.catalina.startup.Catalina.load Server initialization in [875] milliseconds
06-Apr-2021 19:06:02.840 INFORMACIÓN [main] org.apache.catalina.core.StandardService.startInternal Arrancando servicio [Catalina]
06-Apr-2021 19:06:02.840 INFORMACIÓN [main] org.apache.catalina.core.StandardEngine.startInternal Starting Servlet engine: [Apache Tomcat/9.0.44]
06-Apr-2021 19:06:02.869 INFORMACIÓN [main] org.apache.catalina.startup.HostConfig.deployWAR Despliegue del archivo [C:\apache-tomcat-9.0.44\webapps\CRUD.war] de la aplicación web
06-Apr-2021 19:06:06.225 INFORMACIÓN [main] org.apache.jasper.servlet.TldScanner.scanJars Al menos un JAR, que se ha explorado buscando TLDs, aún no contenía TLDs. Activar historial de depuración para este historiador para una completa lista de los JARs que fueron explorados y de los que nos se halló TLDs. Saltarse JARs no necesarios durante la exploración puede dar lugar a una mejora de tiempo significativa en el arranque y compilación de JSP .
06-Apr-2021 19:06:06.299 INFORMACIÓN [main] org.apache.catalina.startup.HostConfig.deployWAR Deployment of web application archive [C:\apache-tomcat-9.0.44\webapps\CRUD.war] has finished in [3.429] ms
06-Apr-2021 19:06:06.300 INFORMACIÓN [main] org.apache.catalina.startup.HostConfig.deployDirectory Desplegando el directorio [C:\apache-tomcat-9.0.44\webapps\docs] de la aplicación web
06-Apr-2021 19:06:06.323 INFORMACIÓN [main] org.apache.catalina.startup.HostConfig.deployDirectory Deployment of web application directory [C:\apache-tomcat-9.0.44\webapps\docs] has finished in [23] ms
06-Apr-2021 19:06:06.323 INFORMACIÓN [main] org.apache.catalina.startup.HostConfig.deployDirectory Desplegando el directorio [C:\apache-tomcat-9.0.44\webapps\examples] de la aplicación web
06-Apr-2021 19:06:06.584 INFORMACIÓN [main] org.apache.catalina.startup.HostConfig.deployDirectory Deployment of web application directory [C:\apache-tomcat-9.0.44\webapps\examples] has finished in [261] ms
06-Apr-2021 19:06:06.585 INFORMACIÓN [main] org.apache.catalina.startup.HostConfig.deployDirectory Desplegando el directorio [C:\apache-tomcat-9.0.44\webapps\host-manager] de la aplicación web
06-Apr-2021 19:06:06.622 INFORMACIÓN [main] org.apache.catalina.startup.HostConfig.deployDirectory Deployment of web application directory [C:\apache-tomcat-9.0.44\webapps\host-manager] has finished in [37] ms
06-Apr-2021 19:06:06.622 INFORMACIÓN [main] org.apache.catalina.startup.HostConfig.deployDirectory Desplegando el directorio [C:\apache-tomcat-9.0.44\webapps\manager] de la aplicación web
06-Apr-2021 19:06:06.677 INFORMACIÓN [main] org.apache.catalina.startup.HostConfig.deployDirectory Deployment of web application directory [C:\apache-tomcat-9.0.44\webapps\manager] has finished in [54] ms
06-Apr-2021 19:06:06.677 INFORMACIÓN [main] org.apache.catalina.startup.HostConfig.deployDirectory Desplegando el directorio [C:\apache-tomcat-9.0.44\webapps\ROOT] de la aplicación web
06-Apr-2021 19:06:06.697 INFORMACIÓN [main] org.apache.catalina.startup.HostConfig.deployDirectory Deployment of web application directory [C:\apache-tomcat-9.0.44\webapps\ROOT] has finished in [20] ms
06-Apr-2021 19:06:06.702 INFORMACIÓN [main] org.apache.coyote.AbstractProtocol.start Starting ProtocolHandler ["http-nio-8080"]
06-Apr-2021 19:06:06.714 INFORMACIÓN [main] org.apache.catalina.startup.Catalina.start Server startup in [3945] milliseconds
06-Apr-2021 19:06:31.176 ADVERTENCIA [http-nio-8080-exec-3] org.apache.tomcat.jdbc.pool.ConnectionPool$PoolCleaner.<init> Database connection pool evicter thread interval is set to lower than 1 second.
